…
## 2. Histogram of the total number of steps taken each day

Group the data by day, then sum the steps per day


```r
stepsPerDay<- df_activity %>% 
    group_by(date) %>% 
    summarize(total_steps = sum(steps,na.rm = TRUE))
stepsPerDay
```

```
## # A tibble: 61 × 2
##    date       total_steps
##    <date>           <int>
##  1 2012-10-01           0
##  2 2012-10-02         126
##  3 2012-10-03       11352
##  4 2012-10-04       12116
##  5 2012-10-05       13294
##  6 2012-10-06       15420
##  7 2012-10-07       11015
##  8 2012-10-08           0
##  9 2012-10-09       12811
## 10 2012-10-10        9900
## # … with 51 more rows
```
…
## 7. Histogram of the total number of steps taken each day after missing values are imputed

Compute the steps per day after imputation.


```r
stepsPerDay_imputed<- df_activity_impute %>% 
    group_by(date) %>% 
    summarize(total_steps = sum(steps,na.rm = TRUE))
stepsPerDay_imputed
```

```
## # A tibble: 61 × 2
##    date       total_steps
##    <date>           <dbl>
##  1 2012-10-01      10766.
##  2 2012-10-02        126 
##  3 2012-10-03      11352 
##  4 2012-10-04      12116 
##  5 2012-10-05      13294 
##  6 2012-10-06      15420 
##  7 2012-10-07      11015 
##  8 2012-10-08      10766.
##  9 2012-10-09      12811 
## 10 2012-10-10       9900 
## # … with 51 more rows
```
…
